Project 1: Wrangling, Exploration, Visualization
…
In order to work with a full set of data, an inner join is probably the best choice. This way, only the dates which have data that includes both fitness data and weather data will be included as these will be the useful data points for evaluation later.

inner_data <- inner_join(halo_data_w_steps, weather, by = c(Date = "DATE"))
# (inner_data) %>% group_by(Date) %>% arrange((Date)) ##
# testing to look at the range of dates weather %>%
# group_by(DATE) %>% filter(DATE == 2020-12-14)

halo_data_w_steps %>% summarize(n_distinct(Date))

## # A tibble: 307 x 2
##    Date       `n_distinct(Date)`
##    <date>                  <int>
##  1 2020-12-05                  1
##  2 2020-12-06                  1
##  3 2020-12-07                  1
##  4 2020-12-08                  1
##  5 2020-12-09                  1
##  6 2020-12-10                  1
##  7 2020-12-11                  1
##  8 2020-12-12                  1
##  9 2020-12-13                  1
## 10 2020-12-14                  1
## #  with 297 more rows

weather %>% summarize(n_distinct(DATE))

## # A tibble: 1 x 1
##   `n_distinct(DATE)`
##                <int>
## 1               1019

inner_data %>% summarize(n_distinct(Date))

## # A tibble: 307 x 2
##    Date       `n_distinct(Date)`
##    <date>                  <int>
##  1 2020-12-05                  1
##  2 2020-12-06                  1
##  3 2020-12-07                  1
##  4 2020-12-08                  1
##  5 2020-12-09                  1
##  6 2020-12-10                  1
##  7 2020-12-11                  1
##  8 2020-12-12                  1
##  9 2020-12-13                  1
## 10 2020-12-14                  1
## #  with 297 more rows

# halo_data weather inner_data

The weather data has 1019 distinct dates, the fitness tracker data has 307 distinct dates and the inner join has 307 distinct dates. This is because the weather dataset has data with dates which include all the same dates as the fitness tracker dataset and an inner join joins where both datasets have data for the given join variable. This means that for every date that was in data uploaded by the fitness tracker, data was also available in the weather dataset so that they could be joined there. The halo_data had 2,744,870 rows and the weather had 49,931 rows. The inner join has 134,498,630 rows which means that there are some lost data, as expected since some of the dates are not able to be used in the join. I chose this join because I wanted to look at the combination of data where I have information for both movement activity and weather.

Wrangling

The first step when wrangling this data is to look at what makes for useful data when it comes to evaluating the weather. There is a minimum temperature each day and a maximum temperature each day but the column for average temperature is just NA which makes that less useful data. So adding a temperature midpoint(mean daily temperature) column might be somewhat more valuable when it comes to looking at temperature. The low temperature typically occurs overnight so looking at a midpoint between the overnight low and the afternoon high might be useful.

inner_data_w_mid <- inner_data %>% group_by(Date) %>% mutate(T_midpoint = (TMIN + 
    TMAX)/2)
head(inner_data_w_mid)

## # A tibble: 6 x 34
## # Groups:   Date [1]
##   Unit  `Software Versi `Software OS` `Software OS Ve HEARTRATE STEPS CALORIES
##   <chr> <chr>            <chr>                    <dbl> <chr>     <chr> <chr>   
## 1 BEAT 1.0.286427.0     android                     10 63.0      <NA>  <NA>    
## 2 BEAT 1.0.286427.0     android                     10 63.0      <NA>  <NA>    
## 3 BEAT 1.0.286427.0     android                     10 63.0      <NA>  <NA>    
## 4 BEAT 1.0.286427.0     android                     10 63.0      <NA>  <NA>    
## 5 BEAT 1.0.286427.0     android                     10 63.0      <NA>  <NA>    
## 6 BEAT 1.0.286427.0     android                     10 63.0      <NA>  <NA>    
## #  with 27 more variables: StartEnd <chr>, Date <date>, daily_steps <dbl>,
## #   STATION <chr>, NAME <chr>, LATITUDE <dbl>, LONGITUDE <dbl>,
## #   ELEVATION <dbl>, AWND <dbl>, AWND_ATTRIBUTES <chr>, PRCP <dbl>,
## #   PRCP_ATTRIBUTES <chr>, SNOW <dbl>, SNOW_ATTRIBUTES <chr>, SNWD <dbl>,
## #   SNWD_ATTRIBUTES <chr>, TAVG <lgl>, TAVG_ATTRIBUTES <lgl>, TMAX <dbl>,
## #   TMAX_ATTRIBUTES <chr>, TMIN <dbl>, TMIN_ATTRIBUTES <chr>, WT <chr>,
## #   WT_value <dbl>, WT_Attributes <chr>, WT_Attr_val <chr>, T_midpoint <dbl>

library(stringr)
daily_data <- inner_data %>% summarize_if(is.numeric, list(average = mean, 
    std = sd, med = median))
unlist(str_extract(inner_data$NAME, "A[A-Za-z]+[ ][A-Za-z]+"))

##   [1] "AUSTIN CAMP" "AUSTIN CAMP" "AUSTIN CAMP" "AUSTIN CAMP" "AUSTIN CAMP"
##   [6] "AUSTIN CAMP" "AUSTIN CAMP" "AUSTIN CAMP" "AUSTIN CAMP" "AUSTIN CAMP"
##  [11] "AUSTIN CAMP" "AUSTIN CAMP" "AUSTIN CAMP" "AUSTIN CAMP" "AUSTIN CAMP"
##  [16] "AUSTIN CAMP" "AUSTIN CAMP" "AUSTIN CAMP" "AUSTIN CAMP" "AUSTIN CAMP"
##  [21] "AUSTIN CAMP" "AUSTIN CAMP" "AUSTIN CAMP" "AUSTIN CAMP" "AUSTIN CAMP"
##  [26] "AUSTIN CAMP" "AUSTIN CAMP" "AUSTIN CAMP" "AUSTIN CAMP" "AUSTIN CAMP"
##  [31] "AUSTIN CAMP" "AUSTIN CAMP" "AUSTIN CAMP" "AUSTIN CAMP" "AUSTIN CAMP"
##  [36] "AUSTIN CAMP" "AUSTIN CAMP" "AUSTIN CAMP" "AUSTIN CAMP" "AUSTIN CAMP"
##  [41] "AUSTIN CAMP" "AUSTIN CAMP" "AUSTIN CAMP" "AUSTIN CAMP" "AUSTIN CAMP"
##  [46] "AUSTIN CAMP" "AUSTIN CAMP" "AUSTIN CAMP" "AUSTIN CAMP" "AUSTIN CAMP"
##  [51] "AUSTIN CAMP" "AUSTIN CAMP" "AUSTIN CAMP" "AUSTIN CAMP" "AUSTIN CAMP"
##  [56] "AUSTIN CAMP" "AUSTIN CAMP" "AUSTIN CAMP" "AUSTIN CAMP" "AUSTIN CAMP"
##  [61] "AUSTIN CAMP" "AUSTIN CAMP" "AUSTIN CAMP" "AUSTIN CAMP" "AUSTIN CAMP"
##  [66] "AUSTIN CAMP" "AUSTIN CAMP" "AUSTIN CAMP" "AUSTIN CAMP" "AUSTIN CAMP"
##  [71] "AUSTIN CAMP" "AUSTIN CAMP" "AUSTIN CAMP" "AUSTIN CAMP" "AUSTIN CAMP"
##  [76] "AUSTIN CAMP" "AUSTIN CAMP" "AUSTIN CAMP" "AUSTIN CAMP" "AUSTIN CAMP"
##  [81] "AUSTIN CAMP" "AUSTIN CAMP" "AUSTIN CAMP" "AUSTIN CAMP" "AUSTIN CAMP"
##  [86] "AUSTIN CAMP" "AUSTIN CAMP" "AUSTIN CAMP" "AUSTIN CAMP" "AUSTIN CAMP"
##  [91] "AUSTIN CAMP" "AUSTIN CAMP" "AUSTIN CAMP" "AUSTIN CAMP" "AUSTIN CAMP"
##  [96] "AUSTIN CAMP" "AUSTIN CAMP" "AUSTIN CAMP" "AUSTIN CAMP" "AUSTIN CAMP"
##  [ reached getOption("max.print") -- omitted 134498530 entries ]
…
